<svg width="200" height="185" viewBox="0 0 200 185" fill="none" xmlns="http://www.w3.org/2000/svg">
<g clip-path="url(#clip0_4_46)">
<path d="M140.027 0H59.972C54.4649 0 50 4.46494 50 9.97195V63.55C50 69.057 54.4649 73.522 59.972 73.522H140.028C145.535 73.522 150 69.057 150 63.55V9.97195C149.999 4.46494 145.534 0 140.027 0ZM140.027 63.55H59.972V9.97195H140.028V63.55H140.027Z" fill="#4C5D6D"/>
<path d="M144.685 76.971H55.315C52.5615 76.971 50.3291 79.2035 50.3291 81.957C50.3291 84.7105 52.5615 86.943 55.315 86.943H144.685C147.438 86.943 149.671 84.7105 149.671 81.957C149.671 79.2035 147.438 76.971 144.685 76.971Z" fill="#4C5D6D"/>
<path d="M22.5253 156.577C25.8419 156.577 28.8994 155.88 31.6978 154.487C34.4962 153.093 36.8859 151.084 38.8667 148.458C42.3215 143.644 44.049 138.093 44.049 131.806C44.049 125.518 42.3216 119.967 38.8669 115.154C36.8861 112.528 34.4965 110.518 31.6981 109.125C28.8997 107.731 25.8421 107.035 22.5254 107.035H4.35309C3.15542 107.035 2.13048 107.461 1.27829 108.313C0.426102 109.165 4.42218e-06 110.19 0 111.388V123.791C0 124.988 0.426096 126.013 1.27829 126.866C2.13048 127.718 3.15541 128.144 4.35308 128.144C5.55076 128.144 6.57569 127.718 7.42788 126.866C8.28007 126.013 8.70617 124.988 8.70617 123.791V115.706H22.5257C26.6715 115.706 29.9075 117.422 32.2337 120.854C34.3066 123.917 35.3431 127.568 35.3431 131.806C35.3431 136.159 34.203 139.971 31.9228 143.241C29.5966 146.351 26.4642 147.905 22.5257 147.905H4.35333C3.15566 147.905 2.13072 148.326 1.27853 149.166C0.426341 150.007 0.000243123 151.038 0.0002387 152.258C0.0002387 153.456 0.426334 154.475 1.27853 155.316C2.13072 156.157 3.15565 156.577 4.35332 156.577H22.5257L22.5253 156.577ZM82.0864 156.577H56.0026C54.8049 156.577 53.78 156.156 52.9278 155.316C52.0756 154.475 51.6495 153.456 51.6495 152.258C51.6495 151.038 52.0756 150.007 52.9278 149.166C53.78 148.326 54.8049 147.905 56.0026 147.905H82.0864C83.2841 147.905 84.309 148.326 85.1612 149.166C86.0134 150.007 86.4395 151.038 86.4395 152.258C86.4395 153.456 86.0134 154.475 85.1612 155.316C84.309 156.156 83.2841 156.577 82.0864 156.577V156.577ZM82.0864 115.705H56.0026C54.8049 115.705 53.78 115.285 52.9278 114.444C52.0756 113.604 51.6495 112.584 51.6495 111.387C51.6495 110.189 52.0756 109.164 52.9278 108.312C53.78 107.46 54.805 107.034 56.0026 107.034H82.0864C83.2841 107.034 84.309 107.46 85.1612 108.312C86.0134 109.164 86.4395 110.189 86.4395 111.387C86.4395 112.584 86.0134 113.604 85.1612 114.444C84.309 115.285 83.2841 115.705 82.0864 115.705V115.705ZM82.0864 136.159H56.0026C54.8049 136.159 53.78 135.733 52.9278 134.88C52.0756 134.028 51.6495 133.003 51.6495 131.806C51.6495 130.608 52.0756 129.583 52.9278 128.731C53.78 127.879 54.805 127.453 56.0026 127.453H82.0864C83.2841 127.453 84.309 127.879 85.1612 128.731C86.0134 129.583 86.4395 130.608 86.4395 131.806C86.4395 133.003 86.0134 134.028 85.1612 134.88C84.309 135.733 83.2841 136.159 82.0864 136.159ZM136.604 156.577C137.48 156.577 138.309 156.323 139.092 155.817C140.313 154.895 140.923 153.686 140.923 152.189C140.923 151.337 140.658 150.519 140.128 149.736L120.885 122.443C119.917 121.2 118.731 120.578 117.326 120.578C115.898 120.578 114.701 121.2 113.733 122.443L102.401 138.543V111.353C102.401 110.179 101.975 109.16 101.123 108.296C100.271 107.432 99.2461 107 98.0484 107C96.8507 107 95.8258 107.432 94.9736 108.296C94.1214 109.16 93.6953 110.179 93.6953 111.354V152.26C93.6953 153.205 93.9717 154.057 94.5245 154.817C95.3767 155.992 96.5743 156.579 98.1175 156.579C99.4764 156.579 100.64 155.969 101.607 154.748L117.327 132.464L133.011 154.748C134.025 155.969 135.223 156.579 136.604 156.579L136.604 156.577ZM153.567 124.412C152.369 124.412 151.344 123.986 150.492 123.134C149.64 122.305 149.214 121.28 149.214 120.059V111.388C149.214 110.19 149.64 109.165 150.492 108.313C151.344 107.461 152.369 107.034 153.567 107.034C154.764 107.034 155.789 107.461 156.641 108.313C157.494 109.165 157.92 110.19 157.92 111.388V120.059C157.92 121.28 157.494 122.305 156.641 123.134C155.789 123.986 154.764 124.412 153.567 124.412V124.412ZM182.795 156.577C181.09 156.577 179.386 156.404 177.682 156.059C173.213 155.091 169.655 153.191 167.006 150.358C166.246 149.483 165.866 148.516 165.866 147.456C165.866 147.387 165.883 147.047 165.918 146.437C165.952 145.827 166.413 145.118 167.3 144.312C168.187 143.506 169.16 143.103 170.219 143.103C170.288 143.103 170.628 143.114 171.238 143.138C171.849 143.161 172.58 143.621 173.432 144.519C174.906 146.04 176.945 147.053 179.547 147.56C180.63 147.79 181.712 147.905 182.795 147.905C184.246 147.905 185.662 147.698 187.044 147.283C189.255 146.477 190.568 145.395 190.983 144.036C191.213 143.276 191.328 142.619 191.328 142.067C191.328 140.915 190.747 139.942 189.584 139.147C188.42 138.353 185.87 137.472 181.931 136.504C180.042 135.998 178.165 135.433 176.3 134.811C169.114 132.393 165.521 127.982 165.521 121.579C165.521 121.05 165.544 120.497 165.59 119.921C166.096 115.937 167.91 112.787 171.031 110.472C174.152 108.157 178.177 107 183.106 107C184.35 107.069 185.374 107.518 186.181 108.347C186.987 109.177 187.39 110.201 187.39 111.422C187.321 112.666 186.872 113.691 186.042 114.497C185.213 115.303 184.211 115.706 183.037 115.706C179.789 115.706 177.348 116.432 175.712 117.883C174.676 118.781 174.158 120.071 174.158 121.752C174.158 123.111 174.774 124.24 176.006 125.138C177.238 126.036 179.962 127.015 184.177 128.074C185.973 128.512 187.77 129.042 189.566 129.664C196.522 131.99 200 136.159 200 142.17C200 142.654 199.977 143.149 199.931 143.656C199.194 149.437 195.797 153.398 189.739 155.54C187.528 156.231 185.213 156.577 182.795 156.577L182.795 156.577ZM195.163 120.403C193.965 120.403 192.946 119.977 192.106 119.125C191.265 118.273 190.845 117.248 190.845 116.05C190.845 114.853 191.265 113.828 192.106 112.976C192.946 112.123 193.965 111.697 195.163 111.697C196.361 111.697 197.386 112.123 198.238 112.976C199.09 113.828 199.516 114.853 199.516 116.05C199.516 117.248 199.09 118.273 198.238 119.125C197.386 119.977 196.361 120.403 195.163 120.403L195.163 120.403Z" fill="#4C5D6D"/>
<path d="M26.3501 175.125C26.4335 175.125 26.4891 175.195 26.4613 175.278L24.0692 184.221C24.0553 184.277 23.9996 184.304 23.944 184.304H22.4141C22.3585 184.304 22.3168 184.277 22.289 184.221L21.3432 180.702L20.0637 184.235C20.0498 184.277 20.022 184.304 19.9664 184.304H18.4921C18.4365 184.304 18.3948 184.277 18.3809 184.221L16.0026 175.264C15.9887 175.195 16.0304 175.125 16.1278 175.125H17.7272C17.7689 175.125 17.8106 175.167 17.8245 175.209L19.3683 181.106L20.5227 177.615L19.8829 175.278C19.8551 175.195 19.9246 175.125 19.9942 175.125H21.7187C21.7744 175.125 21.8022 175.139 21.83 175.209L23.1095 180.883L24.6394 175.209C24.6533 175.167 24.695 175.125 24.7507 175.125H26.3501V175.125ZM21.4545 177.754L19.3544 183.345L17.1013 175.932C17.0735 175.834 16.9066 175.876 16.9344 175.974L19.1875 183.4C19.2292 183.595 19.4657 183.581 19.5352 183.4L21.524 178.032L22.9844 183.386C23.04 183.595 23.2903 183.595 23.3321 183.4L25.5434 175.974C25.5851 175.876 25.4043 175.821 25.3765 175.932L23.1791 183.345L21.1485 175.932C21.1346 175.834 20.9538 175.862 20.9955 175.974L21.4545 177.754ZM30.3048 184.304C30.2352 184.304 30.1935 184.249 30.1935 184.179V175.25C30.1935 175.181 30.2352 175.125 30.3048 175.125H35.0334C35.103 175.125 35.1586 175.181 35.1586 175.25V176.738C35.1586 176.808 35.103 176.864 35.0334 176.864H32.0293V178.755H34.3659C34.4354 178.755 34.4771 178.811 34.4771 178.88V180.396C34.4771 180.466 34.4354 180.521 34.3659 180.521H32.0293V182.566H35.0334C35.103 182.566 35.1586 182.622 35.1586 182.691V184.179C35.1586 184.249 35.103 184.304 35.0334 184.304H30.3048ZM31.0002 176.001V183.4C31.0002 183.484 31.0558 183.512 31.1114 183.512H34.3102C34.4354 183.512 34.4076 183.345 34.3102 183.345H31.181V179.715H33.74C33.8235 179.715 33.8235 179.52 33.74 179.52H31.181V176.071H34.3102C34.4076 176.071 34.4354 175.89 34.3102 175.89H31.1114C31.0558 175.89 31.0002 175.932 31.0002 176.001V176.001ZM47.5742 175.209C47.5881 175.167 47.6159 175.125 47.6715 175.125H49.3961C49.4517 175.125 49.4796 175.167 49.4935 175.209L51.8995 184.151C51.9134 184.235 51.8578 184.304 51.7744 184.304H50.1889C50.1471 184.304 50.1054 184.277 50.0915 184.221L49.5491 182.274H47.5185L46.99 184.221C46.9761 184.277 46.9483 184.304 46.8927 184.304H45.2933C45.2098 184.304 45.1542 184.235 45.1681 184.151L47.5742 175.209ZM47.9636 180.549H49.118L48.5199 178.449L47.9636 180.549ZM50.1054 181.37L50.7452 183.456C50.773 183.539 50.926 183.526 50.8843 183.414L48.659 176.015C48.6173 175.834 48.3808 175.821 48.3391 176.015L46.1834 183.414C46.1417 183.512 46.2947 183.553 46.3364 183.47L46.9483 181.37H50.1054ZM46.99 181.189L48.506 176.071L50.0498 181.189H46.99ZM60.6246 180.674C60.4299 181.078 60.1518 181.384 59.7623 181.565L60.9306 184.137C60.9723 184.221 60.9167 184.304 60.8333 184.304H59.1226C59.067 184.304 59.0391 184.277 59.0252 184.235L57.9404 181.87H57.2311V184.179C57.2311 184.249 57.1755 184.304 57.1059 184.304H55.5065C55.4509 184.304 55.4092 184.249 55.4092 184.179V175.25C55.4092 175.181 55.4509 175.125 55.5065 175.125H58.3994C59.9431 175.125 60.875 176.001 60.875 177.629V179.381C60.875 179.868 60.7915 180.327 60.6246 180.674V180.674ZM59.053 178.95V178.046C59.053 177.072 58.6914 176.975 57.6344 176.975H57.2311V180.049H57.6344C58.5106 180.049 59.0252 180.035 59.053 178.95ZM56.4245 183.456V181.078H58.4272L59.5955 183.484C59.6233 183.553 59.7902 183.526 59.7484 183.4L58.5802 181.036C59.665 180.883 60.0405 180.313 60.0405 179.284V177.545C60.0405 176.015 58.6497 175.89 58.2186 175.89H56.341C56.3132 175.89 56.2576 175.932 56.2576 175.974V183.456C56.2576 183.553 56.4245 183.553 56.4245 183.456V183.456ZM59.8736 177.545V179.284C59.8736 180.702 58.9696 180.897 58.0934 180.897H56.4245V176.071H58.2186C59.7206 176.071 59.8736 177.086 59.8736 177.545V177.545ZM65.0105 184.304C64.9409 184.304 64.8992 184.249 64.8992 184.179V175.25C64.8992 175.181 64.9409 175.125 65.0105 175.125H69.7392C69.8087 175.125 69.8643 175.181 69.8643 175.25V176.738C69.8643 176.808 69.8087 176.864 69.7392 176.864H66.7351V178.755H69.0716C69.1411 178.755 69.1828 178.811 69.1828 178.88V180.396C69.1828 180.466 69.1411 180.521 69.0716 180.521H66.7351V182.566H69.7392C69.8087 182.566 69.8643 182.622 69.8643 182.691V184.179C69.8643 184.249 69.8087 184.304 69.7392 184.304H65.0105V184.304ZM65.7059 176.001V183.4C65.7059 183.484 65.7615 183.512 65.8171 183.512H69.0159C69.1411 183.512 69.1133 183.345 69.0159 183.345H65.8867V179.715H68.4457C68.5292 179.715 68.5292 179.52 68.4457 179.52H65.8867V176.071H69.0159C69.1133 176.071 69.1411 175.89 69.0159 175.89H65.8171C65.7615 175.89 65.7059 175.932 65.7059 176.001V176.001ZM81.9739 176.864H79.999C79.9295 176.864 79.8738 176.808 79.8738 176.738V175.25C79.8738 175.181 79.9295 175.125 79.999 175.125H85.7986C85.8681 175.125 85.9238 175.181 85.9238 175.25V176.738C85.9238 176.808 85.8681 176.864 85.7986 176.864H83.8237V184.179C83.8237 184.249 83.768 184.304 83.6985 184.304H82.0991C82.0295 184.304 81.9739 184.249 81.9739 184.179V176.864V176.864ZM84.9502 175.89H80.75C80.6527 175.89 80.6527 176.071 80.75 176.071H82.8084V183.442C82.8084 183.539 82.9892 183.539 82.9892 183.442V176.071H84.9502C85.0893 176.071 85.0754 175.89 84.9502 175.89V175.89ZM93.5084 178.741V175.25C93.5084 175.181 93.564 175.125 93.6336 175.125H95.2191C95.2886 175.125 95.3442 175.181 95.3442 175.25V184.179C95.3442 184.249 95.2886 184.304 95.2191 184.304H93.6336C93.564 184.304 93.5084 184.249 93.5084 184.179V180.48H91.2553V184.179C91.2553 184.249 91.1997 184.304 91.1302 184.304H89.5447C89.4751 184.304 89.4334 184.249 89.4334 184.179V175.25C89.4334 175.181 89.4751 175.125 89.5447 175.125H91.1302C91.1997 175.125 91.2553 175.181 91.2553 175.25V178.741H93.5084ZM90.2401 183.442C90.2401 183.553 90.4209 183.539 90.4209 183.442V179.715H94.329V183.442C94.329 183.539 94.482 183.553 94.482 183.442V175.96C94.482 175.862 94.329 175.834 94.329 175.96V179.52H90.4209V175.96C90.4209 175.862 90.2401 175.862 90.2401 175.96V183.442V183.442ZM99.6188 184.304C99.5493 184.304 99.5076 184.249 99.5076 184.179V175.25C99.5076 175.181 99.5493 175.125 99.6188 175.125H104.348C104.417 175.125 104.473 175.181 104.473 175.25V176.738C104.473 176.808 104.417 176.864 104.348 176.864H101.343V178.755H103.68C103.749 178.755 103.791 178.811 103.791 178.88V180.396C103.791 180.466 103.749 180.521 103.68 180.521H101.343V182.566H104.348C104.417 182.566 104.473 182.622 104.473 182.691V184.179C104.473 184.249 104.417 184.304 104.348 184.304H99.6188V184.304ZM100.314 176.001V183.4C100.314 183.484 100.37 183.512 100.425 183.512H103.624C103.749 183.512 103.722 183.345 103.624 183.345H100.495V179.715H103.054C103.138 179.715 103.138 179.52 103.054 179.52H100.495V176.071H103.624C103.722 176.071 103.749 175.89 103.624 175.89H100.425C100.37 175.89 100.314 175.932 100.314 176.001V176.001ZM118.279 178.672C119.336 179.172 120.713 179.965 120.713 181.398C120.713 181.815 120.643 182.622 120.184 183.303C119.67 184.068 118.863 184.443 117.751 184.443C116.568 184.443 115.191 183.873 114.76 182.58C114.746 182.538 114.76 182.496 114.802 182.469L116.082 181.37C116.137 181.328 116.221 181.328 116.262 181.398C116.29 181.467 116.346 181.578 116.415 181.718C116.624 182.149 117.125 182.58 117.681 182.58C118.112 182.58 118.696 182.343 118.696 181.676C118.696 181.036 117.82 180.674 117.278 180.466C116.652 180.215 116.012 179.896 115.47 179.423C114.899 178.894 114.621 178.31 114.621 177.615C114.621 175.876 116.221 175 117.737 175C118.933 175 119.823 175.626 120.407 176.864C120.435 176.919 120.407 176.989 120.365 177.017L119.127 177.879C119.072 177.907 119.044 177.907 118.988 177.837C118.515 177.156 118.098 176.836 117.542 176.836C117.25 176.836 116.568 176.947 116.568 177.462C116.568 178.088 117.723 178.407 118.279 178.672ZM115.748 182.51C116.095 183.206 117.055 183.609 117.834 183.609C118.849 183.609 119.67 182.914 119.781 181.857C119.92 180.563 118.905 180.007 117.904 179.506L117.458 179.311C116.429 178.852 115.678 178.505 115.678 177.545C115.678 176.488 116.652 176.001 117.611 176.001C118.488 176.001 118.947 176.516 119.183 176.836C119.266 176.947 119.406 176.85 119.322 176.738C119.086 176.446 118.585 175.834 117.611 175.834C116.513 175.834 115.511 176.377 115.511 177.545C115.511 178.588 116.346 178.992 117.403 179.478L117.834 179.687C119.211 180.341 119.712 180.953 119.6 181.843C119.392 183.261 118.307 183.442 117.834 183.442C116.791 183.442 116.096 182.816 115.887 182.427C115.817 182.357 115.72 182.427 115.748 182.51ZM127.38 175C128.576 175 129.41 175.264 129.939 175.834C130.356 176.293 130.551 176.947 130.551 177.879V181.537C130.551 182.496 130.356 183.164 129.939 183.609C129.396 184.165 128.576 184.443 127.38 184.443C126.142 184.443 125.335 184.165 124.807 183.609C124.403 183.164 124.181 182.496 124.181 181.537V177.879C124.181 176.947 124.403 176.293 124.807 175.821C125.349 175.264 126.17 175 127.38 175V175ZM128.701 181.119V178.338C128.701 177.114 128.047 176.864 127.449 176.864H127.282C126.392 176.864 126.044 177.434 126.044 178.338V181.119C126.044 182.343 126.698 182.608 127.282 182.608H127.449C128.339 182.608 128.687 182.01 128.701 181.119V181.119ZM125.057 177.976V181.425C125.057 182.079 125.224 182.622 125.613 183.025C125.975 183.386 126.531 183.581 127.213 183.581H127.574C128.882 183.581 129.73 182.747 129.73 181.425V177.976C129.73 176.558 128.979 175.793 127.574 175.793H127.213C125.794 175.793 125.057 176.558 125.057 177.976V177.976ZM127.574 183.4H127.213C126.559 183.4 126.072 183.233 125.725 182.886C125.377 182.538 125.196 182.051 125.196 181.425V177.976C125.196 176.655 125.905 175.96 127.213 175.96H127.574C128.896 175.96 129.549 176.641 129.549 177.976V181.425C129.549 182.01 129.368 182.538 128.993 182.9C128.631 183.206 128.145 183.4 127.574 183.4V183.4ZM136.244 175.125C136.313 175.125 136.369 175.181 136.369 175.25V182.552H139.373C139.443 182.552 139.498 182.608 139.498 182.677V184.179C139.498 184.249 139.443 184.304 139.373 184.304H134.658C134.589 184.304 134.547 184.249 134.547 184.179V175.25C134.547 175.181 134.589 175.125 134.658 175.125H136.244ZM135.382 175.974V183.456C135.382 183.484 135.409 183.526 135.465 183.526H138.678C138.789 183.526 138.789 183.345 138.678 183.345H135.535V175.974C135.535 175.876 135.382 175.862 135.382 175.974V175.974ZM147.431 181.092V175.25C147.431 175.181 147.486 175.125 147.556 175.125H149.141C149.211 175.125 149.266 175.181 149.266 175.25V181.537C149.266 183.539 148.168 184.443 146.095 184.443C144.134 184.443 142.911 183.665 142.911 181.537V175.25C142.911 175.181 142.966 175.125 143.036 175.125H144.635C144.705 175.125 144.76 175.181 144.76 175.25V181.092C144.76 182.302 145.442 182.566 146.012 182.566H146.179C147.041 182.566 147.431 181.982 147.431 181.092V181.092ZM143.773 176.015V181.425C143.773 182.677 144.621 183.581 145.942 183.581H146.29C147.611 183.581 148.474 182.635 148.474 181.425V176.015C148.474 175.89 148.307 175.876 148.307 176.015V181.425C148.307 182.566 147.486 183.4 146.29 183.4H145.942C144.774 183.4 143.94 182.649 143.94 181.425V176.015C143.94 175.89 143.773 175.89 143.773 176.015V176.015ZM154.765 176.864H152.79C152.72 176.864 152.665 176.808 152.665 176.738V175.25C152.665 175.181 152.72 175.125 152.79 175.125H158.59C158.659 175.125 158.715 175.181 158.715 175.25V176.738C158.715 176.808 158.659 176.864 158.59 176.864H156.615V184.179C156.615 184.249 156.559 184.304 156.49 184.304H154.89C154.821 184.304 154.765 184.249 154.765 184.179V176.864V176.864ZM157.741 175.89H153.541C153.444 175.89 153.444 176.071 153.541 176.071H155.599V183.442C155.599 183.539 155.78 183.539 155.78 183.442V176.071H157.741C157.88 176.071 157.866 175.89 157.741 175.89V175.89ZM162.336 184.304C162.266 184.304 162.224 184.249 162.224 184.179V175.25C162.224 175.181 162.266 175.125 162.336 175.125H163.921C163.991 175.125 164.046 175.181 164.046 175.25V184.179C164.046 184.249 163.991 184.304 163.921 184.304H162.336ZM163.059 175.96V183.456C163.059 183.581 163.212 183.581 163.212 183.456V175.96C163.212 175.862 163.059 175.862 163.059 175.96V175.96ZM171.186 175C172.382 175 173.217 175.264 173.745 175.834C174.162 176.293 174.357 176.947 174.357 177.879V181.537C174.357 182.496 174.162 183.164 173.745 183.609C173.203 184.165 172.382 184.443 171.186 184.443C169.948 184.443 169.142 184.165 168.613 183.609C168.21 183.164 167.987 182.496 167.987 181.537V177.879C167.987 176.947 168.21 176.293 168.613 175.821C169.155 175.264 169.976 175 171.186 175V175ZM172.507 181.119V178.338C172.507 177.114 171.854 176.864 171.256 176.864H171.089C170.199 176.864 169.851 177.434 169.851 178.338V181.119C169.851 182.343 170.504 182.608 171.089 182.608H171.256C172.146 182.608 172.493 182.01 172.507 181.119V181.119ZM168.863 177.976V181.425C168.863 182.079 169.03 182.622 169.42 183.025C169.781 183.386 170.338 183.581 171.019 183.581H171.381C172.688 183.581 173.536 182.747 173.536 181.425V177.976C173.536 176.558 172.785 175.793 171.381 175.793H171.019C169.6 175.793 168.863 176.558 168.863 177.976V177.976ZM171.381 183.4H171.019C170.365 183.4 169.879 183.233 169.531 182.886C169.183 182.538 169.002 182.051 169.002 181.425V177.976C169.002 176.655 169.712 175.96 171.019 175.96H171.381C172.702 175.96 173.356 176.641 173.356 177.976V181.425C173.356 182.01 173.175 182.538 172.799 182.9C172.438 183.206 171.951 183.4 171.381 183.4V183.4ZM182.15 175.25C182.15 175.181 182.206 175.125 182.275 175.125H183.875C183.944 175.125 184 175.181 184 175.25V184.179C184 184.249 183.944 184.304 183.875 184.304H182.331C182.275 184.304 182.22 184.277 182.206 184.235L180.175 179.659V184.179C180.175 184.249 180.12 184.304 180.05 184.304H178.465C178.395 184.304 178.353 184.249 178.353 184.179V175.25C178.353 175.181 178.395 175.125 178.465 175.125H180.106C180.161 175.125 180.189 175.167 180.203 175.195L182.15 179.687V175.25V175.25ZM183.152 183.47V175.96C183.152 175.862 182.971 175.834 182.971 175.96V183.108L179.341 175.932C179.299 175.876 179.188 175.876 179.188 175.96V183.456C179.188 183.581 179.355 183.581 179.355 183.456V176.321L182.971 183.484C183.026 183.581 183.152 183.553 183.152 183.47Z" fill="#1F8A78"/>
</g>
<defs>
<clipPath id="clip0_4_46">
<rect width="200" height="184.443" fill="white"/>
</clipPath>
</defs>
</svg>
